D:\Git Repositories\smart-edu\api\src\NGC.SmartEdu.Paycom
--output-path=obj\Release\netcoreapp2.0\
--application-name=NGC.SmartEdu.Paycom
--content-root=D:\Git Repositories\smart-edu\api\src\NGC.SmartEdu.Paycom
--file=
