2017-11-24T09:47:59.7822055+05:00  [INF] User profile is available. Using '"C:\Users\Леонид\AppData\Local\ASP.NET\DataProtection-Keys"' as key repository and Windows DPAPI to encrypt keys at rest. (7ac5e29c)
2017-11-24T09:48:10.4357887+05:00 0HL9IUQ80HTKV:00000001 [INF] Request starting HTTP/1.1 POST http://localhost:5000/paycom application/json 109 (ca22a1cb)
2017-11-24T09:48:10.5200328+05:00 0HL9IUQ80HTKV:00000001 [INF] REQUEST HttpMethod: POST, Path: /paycom, Body : {
	"id":1,
	"jsonrpc":"2.0",
	"method" : "ChangePassword",
	"params" : {
	   "password" : "12345"
	}
} (39155b23)
2017-11-24T09:48:10.8575113+05:00 0HL9IUQ80HTKV:00000001 [INF] Rpc request route 'Paycom' matched (0a9b0f95)
2017-11-24T09:48:10.8873944+05:00 0HL9IUQ80HTKV:00000001 [INF] Processing 1 Rpc requests (779c166f)
2017-11-24T09:48:59.4058829+05:00  [INF] User profile is available. Using '"C:\Users\Леонид\AppData\Local\ASP.NET\DataProtection-Keys"' as key repository and Windows DPAPI to encrypt keys at rest. (7ac5e29c)
2017-11-24T09:49:23.7183825+05:00  [INF] User profile is available. Using '"C:\Users\Леонид\AppData\Local\ASP.NET\DataProtection-Keys"' as key repository and Windows DPAPI to encrypt keys at rest. (7ac5e29c)
2017-11-24T09:49:27.0709302+05:00 0HL9IUQUR2EUK:00000001 [INF] Request starting HTTP/1.1 POST http://localhost:5000/paycom application/json 109 (ca22a1cb)
2017-11-24T09:49:27.1506742+05:00 0HL9IUQUR2EUK:00000001 [INF] REQUEST HttpMethod: POST, Path: /paycom, Body : {
	"id":1,
	"jsonrpc":"2.0",
	"method" : "ChangePassword",
	"params" : {
	   "password" : "12345"
	}
} (39155b23)
2017-11-24T09:49:27.4433800+05:00 0HL9IUQUR2EUK:00000001 [INF] Rpc request route 'Paycom' matched (0a9b0f95)
2017-11-24T09:49:27.4754787+05:00 0HL9IUQUR2EUK:00000001 [INF] Processing 1 Rpc requests (779c166f)
2017-11-24T09:49:40.8834100+05:00 0HL9IUQUR2EUK:00000001 [INF] Sending '1' Rpc responses (4e2fbdc3)
2017-11-24T09:49:40.9972041+05:00 0HL9IUQUR2EUK:00000001 [INF] Rpc request complete (dabe7c2d)
2017-11-24T09:49:41.0166855+05:00 0HL9IUQUR2EUK:00000001 [INF] Request finished in 13954.1231ms 200  (791a596a)
2017-11-24T09:58:14.9733557+05:00  [INF] User profile is available. Using '"C:\Users\Леонид\AppData\Local\ASP.NET\DataProtection-Keys"' as key repository and Windows DPAPI to encrypt keys at rest. (7ac5e29c)
2017-11-24T09:58:23.7122205+05:00 0HL9IUVUP8C1C:00000001 [INF] Request starting HTTP/1.1 POST http://localhost:5000/paycom application/json 109 (ca22a1cb)
2017-11-24T09:58:23.7924802+05:00 0HL9IUVUP8C1C:00000001 [INF] REQUEST HttpMethod: POST, Path: /paycom, Body : {
	"id":1,
	"jsonrpc":"2.0",
	"method" : "ChangePassword",
	"params" : {
	   "password" : "12345"
	}
} (39155b23)
2017-11-24T09:58:24.1069672+05:00 0HL9IUVUP8C1C:00000001 [INF] Rpc request route 'Paycom' matched (0a9b0f95)
2017-11-24T09:58:24.1408759+05:00 0HL9IUVUP8C1C:00000001 [INF] Processing 1 Rpc requests (779c166f)
2017-11-24T09:58:43.2118529+05:00 0HL9IUVUP8C1C:00000001 [INF] Sending '1' Rpc responses (4e2fbdc3)
2017-11-24T09:58:43.3149865+05:00 0HL9IUVUP8C1C:00000001 [INF] Rpc request complete (dabe7c2d)
2017-11-24T09:58:43.3336849+05:00 0HL9IUVUP8C1C:00000001 [INF] Request finished in 19629.3776ms 200  (791a596a)
2017-11-24T09:58:49.9706550+05:00 0HL9IUVUP8C1C:00000002 [INF] Request starting HTTP/1.1 POST http://localhost:5000/paycom application/json 178 (ca22a1cb)
2017-11-24T09:58:49.9765720+05:00 0HL9IUVUP8C1C:00000002 [INF] REQUEST HttpMethod: POST, Path: /paycom, Body : {
	"id":1,
	"jsonrpc":"2.0",
	"method" : "CheckPerformTransaction",
	"params" : {
	   "amount" : 500000,
	   "account" : {
	        "phone" : "998903483739"
	    }
	}
} (bbe7173e)
2017-11-24T09:58:50.0034739+05:00 0HL9IUVUP8C1C:00000002 [INF] Request finished in 32.0765ms 200  (791a596a)
2017-11-24T09:58:57.5586452+05:00 0HL9IUVUP8C1C:00000003 [INF] Request starting HTTP/1.1 POST http://localhost:5000/paycom application/json 178 (ca22a1cb)
2017-11-24T09:58:57.5629987+05:00 0HL9IUVUP8C1C:00000003 [INF] REQUEST HttpMethod: POST, Path: /paycom, Body : {
	"id":1,
	"jsonrpc":"2.0",
	"method" : "CheckPerformTransaction",
	"params" : {
	   "amount" : 500000,
	   "account" : {
	        "phone" : "998903483739"
	    }
	}
} (bbe7173e)
2017-11-24T09:58:57.5836133+05:00 0HL9IUVUP8C1C:00000003 [INF] Rpc request route 'Paycom' matched (0a9b0f95)
2017-11-24T09:58:57.6039636+05:00 0HL9IUVUP8C1C:00000003 [INF] Processing 1 Rpc requests (779c166f)
2017-11-24T09:58:58.2872887+05:00 0HL9IUVUP8C1C:00000003 [INF] Sending '1' Rpc responses (4e2fbdc3)
2017-11-24T09:58:58.3019568+05:00 0HL9IUVUP8C1C:00000003 [INF] Rpc request complete (dabe7c2d)
2017-11-24T09:58:58.3065930+05:00 0HL9IUVUP8C1C:00000003 [INF] Request finished in 747.8413ms 200  (791a596a)
2017-11-24T09:59:09.1393504+05:00  [INF] User profile is available. Using '"C:\Users\Леонид\AppData\Local\ASP.NET\DataProtection-Keys"' as key repository and Windows DPAPI to encrypt keys at rest. (7ac5e29c)
2017-11-24T09:59:12.6472750+05:00 0HL9IV0DBL2BS:00000001 [INF] Request starting HTTP/1.1 POST http://localhost:5000/paycom application/json 178 (ca22a1cb)
2017-11-24T09:59:12.7260439+05:00 0HL9IV0DBL2BS:00000001 [INF] REQUEST HttpMethod: POST, Path: /paycom, Body : {
	"id":1,
	"jsonrpc":"2.0",
	"method" : "CheckPerformTransaction",
	"params" : {
	   "amount" : 500000,
	   "account" : {
	        "phone" : "998903483739"
	    }
	}
} (bbe7173e)
2017-11-24T09:59:13.0713356+05:00 0HL9IV0DBL2BS:00000001 [INF] Request finished in 439.3842ms 200  (791a596a)
2017-11-24T09:59:28.6157955+05:00  [INF] User profile is available. Using '"C:\Users\Леонид\AppData\Local\ASP.NET\DataProtection-Keys"' as key repository and Windows DPAPI to encrypt keys at rest. (7ac5e29c)
2017-11-24T09:59:33.0077043+05:00 0HL9IV0JDUK1A:00000001 [INF] Request starting HTTP/1.1 POST http://localhost:5000/paycom application/json 109 (ca22a1cb)
2017-11-24T09:59:33.0913775+05:00 0HL9IV0JDUK1A:00000001 [INF] REQUEST HttpMethod: POST, Path: /paycom, Body : {
	"id":1,
	"jsonrpc":"2.0",
	"method" : "ChangePassword",
	"params" : {
	   "password" : "12345"
	}
} (39155b23)
2017-11-24T09:59:33.4139682+05:00 0HL9IV0JDUK1A:00000001 [INF] Rpc request route 'Paycom' matched (0a9b0f95)
2017-11-24T09:59:33.4465895+05:00 0HL9IV0JDUK1A:00000001 [INF] Processing 1 Rpc requests (779c166f)
2017-11-24T09:59:36.8692752+05:00 0HL9IV0JDUK1A:00000001 [INF] Sending '1' Rpc responses (4e2fbdc3)
2017-11-24T09:59:36.9745877+05:00 0HL9IV0JDUK1A:00000001 [INF] Rpc request complete (dabe7c2d)
2017-11-24T09:59:36.9956744+05:00 0HL9IV0JDUK1A:00000001 [INF] Request finished in 3996.577ms 200  (791a596a)
2017-11-24T09:59:41.2749368+05:00 0HL9IV0JDUK1A:00000002 [INF] Request starting HTTP/1.1 POST http://localhost:5000/paycom application/json 178 (ca22a1cb)
2017-11-24T09:59:41.2798934+05:00 0HL9IV0JDUK1A:00000002 [INF] REQUEST HttpMethod: POST, Path: /paycom, Body : {
	"id":1,
	"jsonrpc":"2.0",
	"method" : "CheckPerformTransaction",
	"params" : {
	   "amount" : 500000,
	   "account" : {
	        "phone" : "998903483739"
	    }
	}
} (bbe7173e)
2017-11-24T09:59:41.3023648+05:00 0HL9IV0JDUK1A:00000002 [INF] Rpc request route 'Paycom' matched (0a9b0f95)
2017-11-24T09:59:41.3143617+05:00 0HL9IV0JDUK1A:00000002 [INF] Processing 1 Rpc requests (779c166f)
2017-11-24T09:59:41.8818691+05:00 0HL9IV0JDUK1A:00000002 [INF] Sending '1' Rpc responses (4e2fbdc3)
2017-11-24T09:59:41.8967933+05:00 0HL9IV0JDUK1A:00000002 [INF] Rpc request complete (dabe7c2d)
2017-11-24T09:59:41.9025197+05:00 0HL9IV0JDUK1A:00000002 [INF] Request finished in 626.8553ms 200  (791a596a)
2017-11-24T10:02:20.9562029+05:00  [INF] User profile is available. Using '"C:\Users\Леонид\AppData\Local\ASP.NET\DataProtection-Keys"' as key repository and Windows DPAPI to encrypt keys at rest. (7ac5e29c)
2017-11-24T10:02:26.3620378+05:00 0HL9IV273CO3U:00000001 [INF] Request starting HTTP/1.1 POST http://localhost:5000/paycom application/json 109 (ca22a1cb)
2017-11-24T10:02:26.4450559+05:00 0HL9IV273CO3U:00000001 [INF] REQUEST HttpMethod: POST, Path: /paycom, Body : {
	"id":1,
	"jsonrpc":"2.0",
	"method" : "ChangePassword",
	"params" : {
	   "password" : "12345"
	}
} (39155b23)
2017-11-24T10:02:26.7427113+05:00 0HL9IV273CO3U:00000001 [INF] Rpc request route 'Paycom' matched (0a9b0f95)
2017-11-24T10:02:26.7734378+05:00 0HL9IV273CO3U:00000001 [INF] Processing 1 Rpc requests (779c166f)
2017-11-24T10:03:02.4370802+05:00  [INF] User profile is available. Using '"C:\Users\Леонид\AppData\Local\ASP.NET\DataProtection-Keys"' as key repository and Windows DPAPI to encrypt keys at rest. (7ac5e29c)
2017-11-24T10:03:09.4390461+05:00 0HL9IV2JU3G24:00000001 [INF] Request starting HTTP/1.1 POST http://localhost:5000/paycom application/json 109 (ca22a1cb)
2017-11-24T10:03:09.5171270+05:00 0HL9IV2JU3G24:00000001 [INF] REQUEST HttpMethod: POST, Path: /paycom, Body : {
	"id":1,
	"jsonrpc":"2.0",
	"method" : "ChangePassword",
	"params" : {
	   "password" : "12345"
	}
} (39155b23)
2017-11-24T10:03:09.8111259+05:00 0HL9IV2JU3G24:00000001 [INF] Rpc request route 'Paycom' matched (0a9b0f95)
2017-11-24T10:03:09.8424772+05:00 0HL9IV2JU3G24:00000001 [INF] Processing 1 Rpc requests (779c166f)
2017-11-24T10:04:16.2883908+05:00  [INF] User profile is available. Using '"C:\Users\Леонид\AppData\Local\ASP.NET\DataProtection-Keys"' as key repository and Windows DPAPI to encrypt keys at rest. (7ac5e29c)
2017-11-24T10:04:20.2085429+05:00 0HL9IV3911HT9:00000001 [INF] Request starting HTTP/1.1 POST http://localhost:5000/paycom application/json 109 (ca22a1cb)
2017-11-24T10:04:20.2899629+05:00 0HL9IV3911HT9:00000001 [INF] REQUEST HttpMethod: POST, Path: /paycom, Body : {
	"id":1,
	"jsonrpc":"2.0",
	"method" : "ChangePassword",
	"params" : {
	   "password" : "12345"
	}
} (39155b23)
2017-11-24T10:04:20.5726264+05:00 0HL9IV3911HT9:00000001 [INF] Rpc request route 'Paycom' matched (0a9b0f95)
2017-11-24T10:04:20.6053073+05:00 0HL9IV3911HT9:00000001 [INF] Processing 1 Rpc requests (779c166f)
2017-11-24T10:04:20.9323763+05:00 0HL9IV3911HT9:00000001 [ERR] An Rpc error occurred. Returning an Rpc error response
EdjCase.JsonRpc.Core.RpcUnknownException: Exception occurred from target method execution. ---> System.Reflection.TargetInvocationException: Exception has been thrown by the target of an invocation. ---> System.ArgumentException: Accessed JObject values with invalid key value: 0. Object property name expected.
   at Newtonsoft.Json.Linq.JObject.get_Item(Object key)
   at System.Dynamic.UpdateDelegates.UpdateAndExecute2[T0,T1,TRet](CallSite site, T0 arg0, T1 arg1)
   at NGC.SmartEdu.Paycom.Controllers.PaycomController.<ChangePassword>d__12.MoveNext() in D:\Git Repositories\smart-edu\api\src\NGC.SmartEdu.Paycom\Controllers\PaycomController.cs:line 313
--- End of stack trace from previous location where exception was thrown ---
   at System.Runtime.ExceptionServices.ExceptionDispatchInfo.Throw()
   at System.Runtime.CompilerServices.TaskAwaiter.HandleNonSuccessAndDebuggerNotification(Task task)
   at EdjCase.JsonRpc.Router.RpcMethod.<HandleAsyncResponses>d__37.MoveNext() in D:\Git Repositories\smart-edu\JsonRpc\src\EdjCase.JsonRpc.Router\RpcMethod.cs:line 150
   --- End of inner exception stack trace ---
   at EdjCase.JsonRpc.Router.RpcMethod.<HandleAsyncResponses>d__37.MoveNext() in D:\Git Repositories\smart-edu\JsonRpc\src\EdjCase.JsonRpc.Router\RpcMethod.cs:line 154
--- End of stack trace from previous location where exception was thrown ---
   at System.Runtime.ExceptionServices.ExceptionDispatchInfo.Throw()
   at System.Runtime.CompilerServices.TaskAwaiter.HandleNonSuccessAndDebuggerNotification(Task task)
   at System.Runtime.CompilerServices.TaskAwaiter`1.GetResult()
   at EdjCase.JsonRpc.Router.RpcMethod.<InvokeAsync>d__36.MoveNext() in D:\Git Repositories\smart-edu\JsonRpc\src\EdjCase.JsonRpc.Router\RpcMethod.cs:line 122
   --- End of inner exception stack trace ---
   at EdjCase.JsonRpc.Router.RpcMethod.<InvokeAsync>d__36.MoveNext() in D:\Git Repositories\smart-edu\JsonRpc\src\EdjCase.JsonRpc.Router\RpcMethod.cs:line 128
--- End of stack trace from previous location where exception was thrown ---
   at System.Runtime.ExceptionServices.ExceptionDispatchInfo.Throw()
   at System.Runtime.CompilerServices.TaskAwaiter.HandleNonSuccessAndDebuggerNotification(Task task)
   at System.Runtime.CompilerServices.TaskAwaiter`1.GetResult()
   at EdjCase.JsonRpc.Router.Defaults.DefaultRpcInvoker.<InvokeRequestAsync>d__14.MoveNext() in D:\Git Repositories\smart-edu\JsonRpc\src\EdjCase.JsonRpc.Router\Defaults\DefaultRpcInvoker.cs:line 134 (30bb32dd)
EdjCase.JsonRpc.Core.RpcUnknownException: Exception occurred from target method execution. ---> System.Reflection.TargetInvocationException: Exception has been thrown by the target of an invocation. ---> System.ArgumentException: Accessed JObject values with invalid key value: 0. Object property name expected.
   at Newtonsoft.Json.Linq.JObject.get_Item(Object key)
   at System.Dynamic.UpdateDelegates.UpdateAndExecute2[T0,T1,TRet](CallSite site, T0 arg0, T1 arg1)
   at NGC.SmartEdu.Paycom.Controllers.PaycomController.<ChangePassword>d__12.MoveNext() in D:\Git Repositories\smart-edu\api\src\NGC.SmartEdu.Paycom\Controllers\PaycomController.cs:line 313
--- End of stack trace from previous location where exception was thrown ---
   at System.Runtime.ExceptionServices.ExceptionDispatchInfo.Throw()
   at System.Runtime.CompilerServices.TaskAwaiter.HandleNonSuccessAndDebuggerNotification(Task task)
   at EdjCase.JsonRpc.Router.RpcMethod.<HandleAsyncResponses>d__37.MoveNext() in D:\Git Repositories\smart-edu\JsonRpc\src\EdjCase.JsonRpc.Router\RpcMethod.cs:line 150
   --- End of inner exception stack trace ---
   at EdjCase.JsonRpc.Router.RpcMethod.<HandleAsyncResponses>d__37.MoveNext() in D:\Git Repositories\smart-edu\JsonRpc\src\EdjCase.JsonRpc.Router\RpcMethod.cs:line 154
--- End of stack trace from previous location where exception was thrown ---
   at System.Runtime.ExceptionServices.ExceptionDispatchInfo.Throw()
   at System.Runtime.CompilerServices.TaskAwaiter.HandleNonSuccessAndDebuggerNotification(Task task)
   at System.Runtime.CompilerServices.TaskAwaiter`1.GetResult()
   at EdjCase.JsonRpc.Router.RpcMethod.<InvokeAsync>d__36.MoveNext() in D:\Git Repositories\smart-edu\JsonRpc\src\EdjCase.JsonRpc.Router\RpcMethod.cs:line 122
   --- End of inner exception stack trace ---
   at EdjCase.JsonRpc.Router.RpcMethod.<InvokeAsync>d__36.MoveNext() in D:\Git Repositories\smart-edu\JsonRpc\src\EdjCase.JsonRpc.Router\RpcMethod.cs:line 128
--- End of stack trace from previous location where exception was thrown ---
   at System.Runtime.ExceptionServices.ExceptionDispatchInfo.Throw()
   at System.Runtime.CompilerServices.TaskAwaiter.HandleNonSuccessAndDebuggerNotification(Task task)
   at System.Runtime.CompilerServices.TaskAwaiter`1.GetResult()
   at EdjCase.JsonRpc.Router.Defaults.DefaultRpcInvoker.<InvokeRequestAsync>d__14.MoveNext() in D:\Git Repositories\smart-edu\JsonRpc\src\EdjCase.JsonRpc.Router\Defaults\DefaultRpcInvoker.cs:line 134
2017-11-24T10:04:20.9659282+05:00 0HL9IV3911HT9:00000001 [INF] Sending '1' Rpc responses (4e2fbdc3)
2017-11-24T10:04:21.0637970+05:00 0HL9IV3911HT9:00000001 [INF] Rpc request complete (dabe7c2d)
2017-11-24T10:04:21.0857060+05:00 0HL9IV3911HT9:00000001 [INF] Request finished in 884.8685ms 200  (791a596a)
2017-11-24T10:04:31.4551284+05:00 0HL9IV3911HT9:00000002 [INF] Request starting HTTP/1.1 POST http://localhost:5000/paycom application/json 109 (ca22a1cb)
2017-11-24T10:04:31.4603680+05:00 0HL9IV3911HT9:00000002 [INF] REQUEST HttpMethod: POST, Path: /paycom, Body : {
	"id":1,
	"jsonrpc":"2.0",
	"method" : "ChangePassword",
	"params" : {
	   "password" : "12345"
	}
} (39155b23)
2017-11-24T10:04:31.4815120+05:00 0HL9IV3911HT9:00000002 [INF] Request finished in 26.1214ms 200  (791a596a)
2017-11-24T10:04:55.2591342+05:00  [INF] User profile is available. Using '"C:\Users\Леонид\AppData\Local\ASP.NET\DataProtection-Keys"' as key repository and Windows DPAPI to encrypt keys at rest. (7ac5e29c)
2017-11-24T10:04:58.4546713+05:00 0HL9IV3KDPTNF:00000001 [INF] Request starting HTTP/1.1 POST http://localhost:5000/paycom application/json 109 (ca22a1cb)
2017-11-24T10:04:58.5403814+05:00 0HL9IV3KDPTNF:00000001 [INF] REQUEST HttpMethod: POST, Path: /paycom, Body : {
	"id":1,
	"jsonrpc":"2.0",
	"method" : "ChangePassword",
	"params" : {
	   "password" : "12345"
	}
} (39155b23)
2017-11-24T10:04:58.8405450+05:00 0HL9IV3KDPTNF:00000001 [INF] Rpc request route 'Paycom' matched (0a9b0f95)
2017-11-24T10:04:58.8721036+05:00 0HL9IV3KDPTNF:00000001 [INF] Processing 1 Rpc requests (779c166f)
2017-11-24T10:05:21.8469979+05:00  [INF] User profile is available. Using '"C:\Users\Леонид\AppData\Local\ASP.NET\DataProtection-Keys"' as key repository and Windows DPAPI to encrypt keys at rest. (7ac5e29c)
2017-11-24T10:05:28.2894181+05:00 0HL9IV3TACNJN:00000001 [INF] Request starting HTTP/1.1 POST http://localhost:5000/paycom application/json 109 (ca22a1cb)
2017-11-24T10:05:28.3661454+05:00 0HL9IV3TACNJN:00000001 [INF] REQUEST HttpMethod: POST, Path: /paycom, Body : {
	"id":1,
	"jsonrpc":"2.0",
	"method" : "ChangePassword",
	"params" : {
	   "password" : "12345"
	}
} (39155b23)
2017-11-24T10:05:28.6549925+05:00 0HL9IV3TACNJN:00000001 [INF] Rpc request route 'Paycom' matched (0a9b0f95)
2017-11-24T10:05:28.6852741+05:00 0HL9IV3TACNJN:00000001 [INF] Processing 1 Rpc requests (779c166f)
2017-11-24T10:07:09.9345747+05:00  [INF] User profile is available. Using '"C:\Users\Леонид\AppData\Local\ASP.NET\DataProtection-Keys"' as key repository and Windows DPAPI to encrypt keys at rest. (7ac5e29c)
2017-11-24T10:07:12.9552257+05:00 0HL9IV4SGERFO:00000001 [INF] Request starting HTTP/1.1 POST http://localhost:5000/paycom application/json 109 (ca22a1cb)
2017-11-24T10:07:13.0321489+05:00 0HL9IV4SGERFO:00000001 [INF] REQUEST HttpMethod: POST, Path: /paycom, Body : {
	"id":1,
	"jsonrpc":"2.0",
	"method" : "ChangePassword",
	"params" : {
	   "password" : "12345"
	}
} (39155b23)
2017-11-24T10:07:13.3162105+05:00 0HL9IV4SGERFO:00000001 [INF] Rpc request route 'Paycom' matched (0a9b0f95)
2017-11-24T10:07:13.3498809+05:00 0HL9IV4SGERFO:00000001 [INF] Processing 1 Rpc requests (779c166f)
2017-11-24T10:07:24.0931630+05:00  [WRN] Heartbeat took longer than "00:00:01" at "11/24/2017 05:07:15 +00:00". (439152bf)
2017-11-24T10:07:58.0084129+05:00  [INF] User profile is available. Using '"C:\Users\Леонид\AppData\Local\ASP.NET\DataProtection-Keys"' as key repository and Windows DPAPI to encrypt keys at rest. (7ac5e29c)
2017-11-24T10:08:00.9029986+05:00 0HL9IV5APPV4U:00000001 [INF] Request starting HTTP/1.1 POST http://localhost:5000/paycom application/json 109 (ca22a1cb)
2017-11-24T10:08:00.9824561+05:00 0HL9IV5APPV4U:00000001 [INF] REQUEST HttpMethod: POST, Path: /paycom, Body : {
	"id":1,
	"jsonrpc":"2.0",
	"method" : "ChangePassword",
	"params" : {
	   "password" : "12345"
	}
} (39155b23)
2017-11-24T10:08:01.2837573+05:00 0HL9IV5APPV4U:00000001 [INF] Rpc request route 'Paycom' matched (0a9b0f95)
2017-11-24T10:08:01.3152667+05:00 0HL9IV5APPV4U:00000001 [INF] Processing 1 Rpc requests (779c166f)
2017-11-24T10:08:06.1058382+05:00  [WRN] Heartbeat took longer than "00:00:01" at "11/24/2017 05:08:03 +00:00". (439152bf)
2017-11-24T10:08:17.6751824+05:00 0HL9IV5APPV4U:00000001 [INF] Sending '1' Rpc responses (4e2fbdc3)
2017-11-24T10:08:17.7562713+05:00 0HL9IV5APPV4U:00000001 [INF] Rpc request complete (dabe7c2d)
2017-11-24T10:08:17.7763205+05:00 0HL9IV5APPV4U:00000001 [INF] Request finished in 16881.2215ms 200  (791a596a)
2017-11-24T10:08:26.1600317+05:00 0HL9IV5APPV4U:00000002 [INF] Request starting HTTP/1.1 POST http://localhost:5000/paycom application/json 109 (ca22a1cb)
2017-11-24T10:08:26.1650066+05:00 0HL9IV5APPV4U:00000002 [INF] REQUEST HttpMethod: POST, Path: /paycom, Body : {
	"id":1,
	"jsonrpc":"2.0",
	"method" : "ChangePassword",
	"params" : {
	   "password" : "12345"
	}
} (39155b23)
2017-11-24T10:08:26.1861562+05:00 0HL9IV5APPV4U:00000002 [INF] Request finished in 25.0938ms 200  (791a596a)
2017-11-24T10:08:39.9083135+05:00 0HL9IV5APPV4U:00000003 [INF] Request starting HTTP/1.1 POST http://localhost:5000/paycom application/json 178 (ca22a1cb)
2017-11-24T10:08:39.9136206+05:00 0HL9IV5APPV4U:00000003 [INF] REQUEST HttpMethod: POST, Path: /paycom, Body : {
	"id":1,
	"jsonrpc":"2.0",
	"method" : "CheckPerformTransaction",
	"params" : {
	   "amount" : 500000,
	   "account" : {
	        "phone" : "998903483739"
	    }
	}
} (bbe7173e)
2017-11-24T10:08:39.9412992+05:00 0HL9IV5APPV4U:00000003 [INF] Rpc request route 'Paycom' matched (0a9b0f95)
2017-11-24T10:08:39.9618727+05:00 0HL9IV5APPV4U:00000003 [INF] Processing 1 Rpc requests (779c166f)
2017-11-24T10:08:40.5303884+05:00 0HL9IV5APPV4U:00000003 [INF] Sending '1' Rpc responses (4e2fbdc3)
2017-11-24T10:08:40.5455788+05:00 0HL9IV5APPV4U:00000003 [INF] Rpc request complete (dabe7c2d)
2017-11-24T10:08:40.5507204+05:00 0HL9IV5APPV4U:00000003 [INF] Request finished in 641.7363ms 200  (791a596a)
2017-11-24T10:34:04.2116182+05:00  [INF] User profile is available. Using '"C:\Users\Леонид\AppData\Local\ASP.NET\DataProtection-Keys"' as key repository and Windows DPAPI to encrypt keys at rest. (7ac5e29c)
2017-11-24T10:34:07.3357517+05:00 0HL9IVJTKC1G2:00000001 [INF] Request starting HTTP/1.1 POST http://localhost:5000/paycom application/json 178 (ca22a1cb)
2017-11-24T10:34:07.4146921+05:00 0HL9IVJTKC1G2:00000001 [INF] REQUEST HttpMethod: POST, Path: /paycom, Body : {
	"id":1,
	"jsonrpc":"2.0",
	"method" : "CheckPerformTransaction",
	"params" : {
	   "amount" : 500000,
	   "account" : {
	        "phone" : "998903483739"
	    }
	}
} (bbe7173e)
2017-11-24T10:34:07.7064814+05:00 0HL9IVJTKC1G2:00000001 [INF] Rpc request route 'Paycom' matched (0a9b0f95)
2017-11-24T10:34:07.7374623+05:00 0HL9IVJTKC1G2:00000001 [INF] Processing 1 Rpc requests (779c166f)
2017-11-24T10:34:07.8816352+05:00 0HL9IVJTKC1G2:00000001 [ERR] An unknown error occurred. Returning an Rpc error response
System.InvalidOperationException: Unable to resolve service for type 'NGC.SmartEdu.Paycom.Manager.Interfaces.IAppSettingsManager' while attempting to activate 'NGC.SmartEdu.Paycom.Controllers.PaycomController'.
   at Microsoft.Extensions.Internal.ActivatorUtilities.GetService(IServiceProvider sp, Type type, Type requiredBy, Boolean isDefaultParameterRequired)
   at lambda_method(Closure , IServiceProvider , Object[] )
   at EdjCase.JsonRpc.Router.RpcMethod.<InvokeAsync>d__36.MoveNext() in D:\Git Repositories\smart-edu\JsonRpc\src\EdjCase.JsonRpc.Router\RpcMethod.cs:line 109
--- End of stack trace from previous location where exception was thrown ---
   at System.Runtime.ExceptionServices.ExceptionDispatchInfo.Throw()
   at System.Runtime.CompilerServices.TaskAwaiter.HandleNonSuccessAndDebuggerNotification(Task task)
   at System.Runtime.CompilerServices.TaskAwaiter`1.GetResult()
   at EdjCase.JsonRpc.Router.Defaults.DefaultRpcInvoker.<InvokeRequestAsync>d__14.MoveNext() in D:\Git Repositories\smart-edu\JsonRpc\src\EdjCase.JsonRpc.Router\Defaults\DefaultRpcInvoker.cs:line 134 (3339b3e0)
System.InvalidOperationException: Unable to resolve service for type 'NGC.SmartEdu.Paycom.Manager.Interfaces.IAppSettingsManager' while attempting to activate 'NGC.SmartEdu.Paycom.Controllers.PaycomController'.
   at Microsoft.Extensions.Internal.ActivatorUtilities.GetService(IServiceProvider sp, Type type, Type requiredBy, Boolean isDefaultParameterRequired)
   at lambda_method(Closure , IServiceProvider , Object[] )
   at EdjCase.JsonRpc.Router.RpcMethod.<InvokeAsync>d__36.MoveNext() in D:\Git Repositories\smart-edu\JsonRpc\src\EdjCase.JsonRpc.Router\RpcMethod.cs:line 109
--- End of stack trace from previous location where exception was thrown ---
   at System.Runtime.ExceptionServices.ExceptionDispatchInfo.Throw()
   at System.Runtime.CompilerServices.TaskAwaiter.HandleNonSuccessAndDebuggerNotification(Task task)
   at System.Runtime.CompilerServices.TaskAwaiter`1.GetResult()
   at EdjCase.JsonRpc.Router.Defaults.DefaultRpcInvoker.<InvokeRequestAsync>d__14.MoveNext() in D:\Git Repositories\smart-edu\JsonRpc\src\EdjCase.JsonRpc.Router\Defaults\DefaultRpcInvoker.cs:line 134
2017-11-24T10:34:07.9147920+05:00 0HL9IVJTKC1G2:00000001 [INF] Sending '1' Rpc responses (4e2fbdc3)
2017-11-24T10:34:08.0004701+05:00 0HL9IVJTKC1G2:00000001 [INF] Rpc request complete (dabe7c2d)
2017-11-24T10:34:08.0195045+05:00 0HL9IVJTKC1G2:00000001 [INF] Request finished in 692.3614ms 200  (791a596a)
2017-11-24T10:35:00.6822134+05:00  [INF] User profile is available. Using '"C:\Users\Леонид\AppData\Local\ASP.NET\DataProtection-Keys"' as key repository and Windows DPAPI to encrypt keys at rest. (7ac5e29c)
2017-11-24T10:35:02.5013141+05:00 0HL9IVKE2HFNR:00000001 [INF] Request starting HTTP/1.1 POST http://localhost:5000/paycom application/json 178 (ca22a1cb)
2017-11-24T10:35:02.5793514+05:00 0HL9IVKE2HFNR:00000001 [INF] REQUEST HttpMethod: POST, Path: /paycom, Body : {
	"id":1,
	"jsonrpc":"2.0",
	"method" : "CheckPerformTransaction",
	"params" : {
	   "amount" : 500000,
	   "account" : {
	        "phone" : "998903483739"
	    }
	}
} (bbe7173e)
2017-11-24T10:35:02.8689070+05:00 0HL9IVKE2HFNR:00000001 [INF] Rpc request route 'Paycom' matched (0a9b0f95)
2017-11-24T10:35:02.9004352+05:00 0HL9IVKE2HFNR:00000001 [INF] Processing 1 Rpc requests (779c166f)
2017-11-24T10:35:03.4857322+05:00 0HL9IVKE2HFNR:00000001 [INF] Sending '1' Rpc responses (4e2fbdc3)
2017-11-24T10:35:03.5701350+05:00 0HL9IVKE2HFNR:00000001 [INF] Rpc request complete (dabe7c2d)
2017-11-24T10:35:03.5890668+05:00 0HL9IVKE2HFNR:00000001 [INF] Request finished in 1095.5958ms 200  (791a596a)
2017-11-24T10:35:07.7396668+05:00 0HL9IVKE2HFNR:00000002 [INF] Request starting HTTP/1.1 POST http://localhost:5000/paycom application/json 109 (ca22a1cb)
2017-11-24T10:35:07.7485770+05:00 0HL9IVKE2HFNR:00000002 [INF] REQUEST HttpMethod: POST, Path: /paycom, Body : {
	"id":1,
	"jsonrpc":"2.0",
	"method" : "ChangePassword",
	"params" : {
	   "password" : "12345"
	}
} (39155b23)
2017-11-24T10:35:07.7734108+05:00 0HL9IVKE2HFNR:00000002 [INF] Request finished in 33.7392ms 200  (791a596a)
2017-11-24T10:35:20.0151981+05:00 0HL9IVKE2HFNR:00000003 [INF] Request starting HTTP/1.1 POST http://localhost:5000/paycom application/json 140 (ca22a1cb)
2017-11-24T10:35:20.0208850+05:00 0HL9IVKE2HFNR:00000003 [INF] REQUEST HttpMethod: POST, Path: /paycom, Body : {
	"id":1,
	"jsonrpc":"2.0",
	"method" : "ChangePassword",
	"params" : {
	   "password" : "UUNGz#YyRnQhodetR%KsgVQbzrTWsFoX4saN"
	}
} (12252ee5)
2017-11-24T10:35:20.0410172+05:00 0HL9IVKE2HFNR:00000003 [INF] Rpc request route 'Paycom' matched (0a9b0f95)
2017-11-24T10:35:20.0563900+05:00 0HL9IVKE2HFNR:00000003 [INF] Processing 1 Rpc requests (779c166f)
2017-11-24T10:35:20.1944432+05:00 0HL9IVKE2HFNR:00000003 [INF] Sending '1' Rpc responses (4e2fbdc3)
2017-11-24T10:35:20.2079408+05:00 0HL9IVKE2HFNR:00000003 [INF] Rpc request complete (dabe7c2d)
2017-11-24T10:35:20.2130106+05:00 0HL9IVKE2HFNR:00000003 [INF] Request finished in 200.4259ms 200  (791a596a)
2017-11-24T10:35:24.8489291+05:00 0HL9IVKE2HFNR:00000004 [INF] Request starting HTTP/1.1 POST http://localhost:5000/paycom application/json 178 (ca22a1cb)
2017-11-24T10:35:24.8544284+05:00 0HL9IVKE2HFNR:00000004 [INF] REQUEST HttpMethod: POST, Path: /paycom, Body : {
	"id":1,
	"jsonrpc":"2.0",
	"method" : "CheckPerformTransaction",
	"params" : {
	   "amount" : 500000,
	   "account" : {
	        "phone" : "998903483739"
	    }
	}
} (bbe7173e)
2017-11-24T10:35:24.8764884+05:00 0HL9IVKE2HFNR:00000004 [INF] Rpc request route 'Paycom' matched (0a9b0f95)
2017-11-24T10:35:24.8966146+05:00 0HL9IVKE2HFNR:00000004 [INF] Processing 1 Rpc requests (779c166f)
2017-11-24T10:35:24.9885240+05:00 0HL9IVKE2HFNR:00000004 [INF] Sending '1' Rpc responses (4e2fbdc3)
2017-11-24T10:35:25.0009666+05:00 0HL9IVKE2HFNR:00000004 [INF] Rpc request complete (dabe7c2d)
2017-11-24T10:35:25.0057114+05:00 0HL9IVKE2HFNR:00000004 [INF] Request finished in 159.9135ms 200  (791a596a)
2017-11-24T10:53:19.0650264+05:00  [INF] User profile is available. Using '"C:\Users\Леонид\AppData\Local\ASP.NET\DataProtection-Keys"' as key repository and Windows DPAPI to encrypt keys at rest. (7ac5e29c)
2017-11-24T10:53:26.9152051+05:00 0HL9IVUN6RB79:00000001 [INF] Request starting HTTP/1.1 POST http://localhost:5000/paycom application/json 140 (ca22a1cb)
2017-11-24T10:53:27.0071051+05:00 0HL9IVUN6RB79:00000001 [INF] REQUEST HttpMethod: POST, Path: /paycom, Body : {
	"id":1,
	"jsonrpc":"2.0",
	"method" : "ChangePassword",
	"params" : {
	   "password" : "UUNGz#YyRnQhodetR%KsgVQbzrTWsFoX4saN"
	}
} (12252ee5)
2017-11-24T10:53:27.4546404+05:00 0HL9IVUN6RB79:00000001 [INF] Request finished in 549.0806ms 200  (791a596a)
2017-11-24T10:53:46.8646856+05:00 0HL9IVUN6RB79:00000002 [INF] Request starting HTTP/1.1 POST http://localhost:5000/paycom application/json 140 (ca22a1cb)
2017-11-24T10:53:46.8710872+05:00 0HL9IVUN6RB79:00000002 [INF] REQUEST HttpMethod: POST, Path: /paycom, Body : {
	"id":1,
	"jsonrpc":"2.0",
	"method" : "ChangePassword",
	"params" : {
	   "password" : "UUNGz#YyRnQhodetR%KsgVQbzrTWsFoX4saN"
	}
} (12252ee5)
2017-11-24T10:53:46.9112267+05:00 0HL9IVUN6RB79:00000002 [INF] Rpc request route 'Paycom' matched (0a9b0f95)
2017-11-24T10:53:46.9339991+05:00 0HL9IVUN6RB79:00000002 [INF] Processing 1 Rpc requests (779c166f)
2017-11-24T10:53:47.2398248+05:00 0HL9IVUN6RB79:00000002 [ERR] An Rpc error occurred. Returning an Rpc error response
EdjCase.JsonRpc.Core.RpcUnknownException: Exception occurred from target method execution. ---> System.Reflection.TargetInvocationException: Exception has been thrown by the target of an invocation. ---> System.ArgumentNullException: Value cannot be null.
Parameter name: path
   at System.IO.File.ReadAllText(String path)
   at NGC.SmartEdu.Paycom.Manager.AppSettingsManager.UpdateCashboxOptions(String key) in D:\Git Repositories\smart-edu\api\src\NGC.SmartEdu.Paycom\Manager\AppSettingsManager.cs:line 45
   at NGC.SmartEdu.Paycom.Controllers.PaycomController.<ChangePassword>d__12.MoveNext() in D:\Git Repositories\smart-edu\api\src\NGC.SmartEdu.Paycom\Controllers\PaycomController.cs:line 313
--- End of stack trace from previous location where exception was thrown ---
   at System.Runtime.ExceptionServices.ExceptionDispatchInfo.Throw()
   at System.Runtime.CompilerServices.TaskAwaiter.HandleNonSuccessAndDebuggerNotification(Task task)
   at EdjCase.JsonRpc.Router.RpcMethod.<HandleAsyncResponses>d__37.MoveNext() in D:\Git Repositories\smart-edu\JsonRpc\src\EdjCase.JsonRpc.Router\RpcMethod.cs:line 150
   --- End of inner exception stack trace ---
   at EdjCase.JsonRpc.Router.RpcMethod.<HandleAsyncResponses>d__37.MoveNext() in D:\Git Repositories\smart-edu\JsonRpc\src\EdjCase.JsonRpc.Router\RpcMethod.cs:line 154
--- End of stack trace from previous location where exception was thrown ---
   at System.Runtime.ExceptionServices.ExceptionDispatchInfo.Throw()
   at System.Runtime.CompilerServices.TaskAwaiter.HandleNonSuccessAndDebuggerNotification(Task task)
   at System.Runtime.CompilerServices.TaskAwaiter`1.GetResult()
   at EdjCase.JsonRpc.Router.RpcMethod.<InvokeAsync>d__36.MoveNext() in D:\Git Repositories\smart-edu\JsonRpc\src\EdjCase.JsonRpc.Router\RpcMethod.cs:line 122
   --- End of inner exception stack trace ---
   at EdjCase.JsonRpc.Router.RpcMethod.<InvokeAsync>d__36.MoveNext() in D:\Git Repositories\smart-edu\JsonRpc\src\EdjCase.JsonRpc.Router\RpcMethod.cs:line 128
--- End of stack trace from previous location where exception was thrown ---
   at System.Runtime.ExceptionServices.ExceptionDispatchInfo.Throw()
   at System.Runtime.CompilerServices.TaskAwaiter.HandleNonSuccessAndDebuggerNotification(Task task)
   at System.Runtime.CompilerServices.TaskAwaiter`1.GetResult()
   at EdjCase.JsonRpc.Router.Defaults.DefaultRpcInvoker.<InvokeRequestAsync>d__14.MoveNext() in D:\Git Repositories\smart-edu\JsonRpc\src\EdjCase.JsonRpc.Router\Defaults\DefaultRpcInvoker.cs:line 134 (ea0f867f)
EdjCase.JsonRpc.Core.RpcUnknownException: Exception occurred from target method execution. ---> System.Reflection.TargetInvocationException: Exception has been thrown by the target of an invocation. ---> System.ArgumentNullException: Value cannot be null.
Parameter name: path
   at System.IO.File.ReadAllText(String path)
   at NGC.SmartEdu.Paycom.Manager.AppSettingsManager.UpdateCashboxOptions(String key) in D:\Git Repositories\smart-edu\api\src\NGC.SmartEdu.Paycom\Manager\AppSettingsManager.cs:line 45
   at NGC.SmartEdu.Paycom.Controllers.PaycomController.<ChangePassword>d__12.MoveNext() in D:\Git Repositories\smart-edu\api\src\NGC.SmartEdu.Paycom\Controllers\PaycomController.cs:line 313
--- End of stack trace from previous location where exception was thrown ---
   at System.Runtime.ExceptionServices.ExceptionDispatchInfo.Throw()
   at System.Runtime.CompilerServices.TaskAwaiter.HandleNonSuccessAndDebuggerNotification(Task task)
   at EdjCase.JsonRpc.Router.RpcMethod.<HandleAsyncResponses>d__37.MoveNext() in D:\Git Repositories\smart-edu\JsonRpc\src\EdjCase.JsonRpc.Router\RpcMethod.cs:line 150
   --- End of inner exception stack trace ---
   at EdjCase.JsonRpc.Router.RpcMethod.<HandleAsyncResponses>d__37.MoveNext() in D:\Git Repositories\smart-edu\JsonRpc\src\EdjCase.JsonRpc.Router\RpcMethod.cs:line 154
--- End of stack trace from previous location where exception was thrown ---
   at System.Runtime.ExceptionServices.ExceptionDispatchInfo.Throw()
   at System.Runtime.CompilerServices.TaskAwaiter.HandleNonSuccessAndDebuggerNotification(Task task)
   at System.Runtime.CompilerServices.TaskAwaiter`1.GetResult()
   at EdjCase.JsonRpc.Router.RpcMethod.<InvokeAsync>d__36.MoveNext() in D:\Git Repositories\smart-edu\JsonRpc\src\EdjCase.JsonRpc.Router\RpcMethod.cs:line 122
   --- End of inner exception stack trace ---
   at EdjCase.JsonRpc.Router.RpcMethod.<InvokeAsync>d__36.MoveNext() in D:\Git Repositories\smart-edu\JsonRpc\src\EdjCase.JsonRpc.Router\RpcMethod.cs:line 128
--- End of stack trace from previous location where exception was thrown ---
   at System.Runtime.ExceptionServices.ExceptionDispatchInfo.Throw()
   at System.Runtime.CompilerServices.TaskAwaiter.HandleNonSuccessAndDebuggerNotification(Task task)
   at System.Runtime.CompilerServices.TaskAwaiter`1.GetResult()
   at EdjCase.JsonRpc.Router.Defaults.DefaultRpcInvoker.<InvokeRequestAsync>d__14.MoveNext() in D:\Git Repositories\smart-edu\JsonRpc\src\EdjCase.JsonRpc.Router\Defaults\DefaultRpcInvoker.cs:line 134
2017-11-24T10:53:47.2715486+05:00 0HL9IVUN6RB79:00000002 [INF] Sending '1' Rpc responses (4e2fbdc3)
2017-11-24T10:53:47.3164778+05:00 0HL9IVUN6RB79:00000002 [INF] Rpc request complete (dabe7c2d)
2017-11-24T10:53:47.3218252+05:00 0HL9IVUN6RB79:00000002 [INF] Request finished in 458.0752ms 200  (791a596a)
2017-11-24T10:54:02.0049994+05:00 0HL9IVUN6RB79:00000003 [INF] Request starting HTTP/1.1 POST http://localhost:5000/paycom application/json 140 (ca22a1cb)
2017-11-24T10:54:02.0133933+05:00 0HL9IVUN6RB79:00000003 [INF] REQUEST HttpMethod: POST, Path: /paycom, Body : {
	"id":1,
	"jsonrpc":"2.0",
	"method" : "ChangePassword",
	"params" : {
	   "password" : "UUNGz#YyRnQhodetR%KsgVQbzrTWsFoX4saN"
	}
} (12252ee5)
2017-11-24T10:54:02.0331642+05:00 0HL9IVUN6RB79:00000003 [INF] Rpc request route 'Paycom' matched (0a9b0f95)
2017-11-24T10:54:02.0488834+05:00 0HL9IVUN6RB79:00000003 [INF] Processing 1 Rpc requests (779c166f)
